GAM model building
…
mod_df_count <- acs_medicare_opioid_merge %>% 
  select(-c(tot_pop_17, over_65_prop, mean_med_inc_desp)) %>% 
  inner_join(yearly_pop, by = c("city_death", "year"))
mod_df_count

## # A tibble: 1,428 x 23
##    city_death  year death_rate_per1~ over_65_count med_house_inc
##    <chr>      <dbl>            <dbl>         <dbl>         <dbl>
##  1 abington    2013            0              2469        87156 
##  2 abington    2014            3.71           2469        87156 
##  3 abington    2015            0.616          2469        87156 
##  4 abington    2016            1.84           2469        87156 
##  5 abington    2017            3.06           2469        87156 
##  6 acton       2013            0.439          4001       139890.
##  7 acton       2014            0.869          4001       139890.
##  8 acton       2015            1.29           4001       139890.
##  9 acton       2016            0              4001       139890.
## 10 acton       2017            0.422          4001       139890.
## # ... with 1,418 more rows, and 18 more variables: mean_house_inc <dbl>,
## #   drop_out <dbl>, less_than_hs_ed <dbl>, at_or_below_pov_prop <dbl>,
## #   pop_struggling_prop <dbl>, town_status <chr>, urb_v_rur <chr>,
## #   total_claims_count_avg <dbl>, opioid_claim_count_avg <dbl>,
## #   opioid_rate_avg <dbl>, total_claim_count_sum <dbl>,
## #   opioid_claim_count_sum <dbl>, claim_per_65_and_over <dbl>,
## #   opi_claim_per_65_and_over <dbl>, id <int>, x <dbl>, y <dbl>,
## #   tot_pop <dbl>

yearly_death_count <- death_acs_merge_full %>% 
  select(city_death, `2014`:`2018`) %>% 
  gather(key="year", value="death_count_next_year", -city_death) %>% 
  mutate(year = as.numeric(year) - 1)
yearly_death_count

## # A tibble: 1,735 x 3
##    city_death  year death_count_next_year
##    <chr>      <dbl>                 <dbl>
##  1 abington    2013                     0
##  2 acton       2013                     1
##  3 acushnet    2013                     0
##  4 adams       2013                     2
##  5 agawam      2013                     1
##  6 alford      2013                     0
##  7 amesbury    2013                     0
##  8 amherst     2013                     1
##  9 andover     2013                     5
## 10 aquinnah    2013                     0
## # ... with 1,725 more rows

mod_df_count <- yearly_death_count %>% 
  inner_join(mod_df_count, by = c("city_death", "year"))
mod_df_count

## # A tibble: 1,428 x 24
##    city_death  year death_count_nex~ death_rate_per1~ over_65_count
##    <chr>      <dbl>            <dbl>            <dbl>         <dbl>
##  1 abington    2013                0            0              2469
##  2 acton       2013                1            0.439          4001
##  3 adams       2013                2            2.40           1764
##  4 agawam      2013                1            0.356          6195
##  5 amesbury    2013                0            0              2949
##  6 amherst     2013                1            0.256          3465
##  7 andover     2013                5            1.45           5881
##  8 arlington   2013                5            1.13           8208
##  9 ashburnham  2013                0            0               776
## 10 ashfield    2013                0            0               340
## # ... with 1,418 more rows, and 19 more variables: med_house_inc <dbl>,
## #   mean_house_inc <dbl>, drop_out <dbl>, less_than_hs_ed <dbl>,
## #   at_or_below_pov_prop <dbl>, pop_struggling_prop <dbl>,
## #   town_status <chr>, urb_v_rur <chr>, total_claims_count_avg <dbl>,
## #   opioid_claim_count_avg <dbl>, opioid_rate_avg <dbl>,
## #   total_claim_count_sum <dbl>, opioid_claim_count_sum <dbl>,
## #   claim_per_65_and_over <dbl>, opi_claim_per_65_and_over <dbl>,
## #   id <int>, x <dbl>, y <dbl>, tot_pop <dbl>
…
benzo_tot_day_supp_nona

## # A tibble: 1,285 x 5
##    city_death  year alprazolam diazepam lorazepam
##    <chr>      <dbl>      <dbl>    <dbl>     <dbl>
##  1 abington    2013      13567     4020     11567
##  2 abington    2014      12428     3225     11173
##  3 abington    2015      11241     3851     11227
##  4 abington    2016       8777     1672     10919
##  5 abington    2017       8384     1908     11206
##  6 acton       2013       4800     4351     19803
##  7 acton       2014       4572     3844     25170
##  8 acton       2015       6141     3152     23847
##  9 acton       2016       6411     3479     26103
## 10 acton       2017       6430     5038     30669
## # ... with 1,275 more rows
…
