Maps and other figures
…
mod_df_death_rate %>% 
  arrange(desc(actual_death_rate))

## # A tibble: 1,275 x 9
##    city_death  year death_count_nex~ fin_pred tot_pop actual_death_ra~
##    <chr>      <dbl>            <dbl>    <dbl>   <dbl>            <dbl>
##  1 ayer        2016               10    1.12    7846.            12.7 
##  2 gardner     2018               23    5.89   20496             11.2 
##  3 weymouth    2016               57   20.3    53847             10.6 
##  4 weymouth    2017               55   21.9    54158             10.2 
##  5 ware        2016               10    3.47    9866.            10.1 
##  6 stockbrid~  2017                2    0.321   1975.            10.1 
##  7 salisbury   2017                9    2.43    8916.            10.1 
##  8 fall river  2016               85   64.6    85390.             9.95
##  9 everett     2015               43   29.9    43693.             9.84
## 10 salem       2017               40   23.7    40923.             9.77
## # ... with 1,265 more rows, and 3 more variables: pred_death_rate <dbl>,
## #   town_col <chr>, town_shape <dbl>

mod_df_death_rate %>% 
  filter(year == 2018) %>% 
  arrange(desc(pred_death_rate))

## # A tibble: 253 x 9
##    city_death  year death_count_nex~ fin_pred tot_pop actual_death_ra~
##    <chr>      <dbl>            <dbl>    <dbl>   <dbl>            <dbl>
##  1 goshen      2018                0    0.959    1096             0   
##  2 lowell      2018               72   86.0    110964             6.49
##  3 fall river  2018               67   66.2     85548             7.83
##  4 lawrence    2018               62   58.7     79497             7.80
##  5 worcester   2018              134  134.     184743             7.25
##  6 brockton    2018               51   66.4     94602             5.39
##  7 peabody     2018                9   35.8     52610             1.71
##  8 lynn        2018               48   60.2     91817             5.23
##  9 new bedfo~  2018               62   61.2     94459             6.56
## 10 chelsea     2018               13   24.5     39272             3.31
## # ... with 243 more rows, and 3 more variables: pred_death_rate <dbl>,
## #   town_col <chr>, town_shape <dbl>
…
